<?xml version="1.0" encoding="utf-8"?>
<!-- Generator: Adobe Illustrator 19.2.1, SVG Export Plug-In . SVG Version: 6.00 Build 0)  -->
<svg version="1.1" id="Layer_1" xmlns="http://www.w3.org/2000/svg" xmlns:xlink="http://www.w3.org/1999/xlink" x="0px" y="0px"
	 viewBox="0 0 540 106" style="enable-background:new 0 0 540 106;" xml:space="preserve">
<style type="text/css">
	.st0{fill:#1825AA;}
	.st1{fill:#FFFFFF;}
	.st2{fill:#777679;}
</style>
<g>
	<path class="st0" d="M99.7,53c0,26.1-21.2,47.4-47.3,47.4C26.2,100.4,5,79.1,5,53C5,26.9,26.2,5.6,52.4,5.6
		C78.5,5.6,99.7,26.9,99.7,53"/>
	<g>
		<path class="st1" d="M52.4,94.5c-22.9,0-41.5-18.6-41.5-41.5s18.6-41.5,41.5-41.5c22.9,0,41.5,18.6,41.5,41.5S75.2,94.5,52.4,94.5
			z M52.4,13.1c-22,0-39.9,17.9-39.9,39.9s17.9,39.9,39.9,39.9c22,0,39.9-17.9,39.9-39.9S74.3,13.1,52.4,13.1z"/>
	</g>
	<path class="st1" d="M55.7,38.2c-0.1,4.4-0.3,7.6-0.6,11.4c-0.1,2-0.2,3.4-0.2,4.2c0,0.2,0,0.4,0,0.6c-0.3,0-0.7,0-1,0
		c-1.3,0-2.5,0.1-3.6,0.4h0l0,0c0-0.2,0-0.4,0-0.6l-0.5-16c0-0.2,0-0.3,0-0.5c0-1.7,0.3-2,1.8-2.2c0.6,0,3.7-0.1,4.1,0.2
		c0.2,0.2,0.2,0.8,0.2,1.9V38.2z M79.7,57c-1.5,0-1.7-0.3-1.8-2.9l-0.5-16c0-0.2,0-0.3,0-0.5c0-1.7,0.3-2,1.8-2.2
		c1.3-0.1,1.4-0.1,1.4-0.6c0-0.4-0.2-0.5-0.7-0.5c-0.1,0-0.4,0-0.6,0c-0.6,0-1.3,0.1-2.2,0c-0.8,0-1.5-0.1-2.1-0.1
		c-1,0-1.2,0-1.5,0.2c-0.2,0.1-0.4,0.4-0.7,1.2l-6,15.3l-6.2-15.3l-0.3-1c-0.1-0.3-0.4-0.5-1-0.5c-0.4,0-0.9,0-1.6,0
		c-0.4,0-1,0-1.9,0c0,0-3.4-0.1-3.7-0.1c-0.1,0-1.9,0.1-2.8,0.1c-0.8,0-1.5-0.1-2.1-0.1c-1,0-1.2,0-1.5,0.2
		c-0.2,0.1-0.4,0.4-0.7,1.2l-6,15.3l-6.2-15.3l-0.4-1c-0.1-0.3-0.4-0.5-1-0.5c-0.4,0-0.9,0-1.6,0c-0.4,0-1,0-1.9,0h-0.5
		c-0.6,0-1,0-1.3,0c-0.2,0-0.5,0-0.7,0c-0.7,0-0.9,0.1-0.9,0.5c0,0.5,0.4,0.6,1.5,0.7c1.1,0,1.3,0.1,1.5,0.3
		c0.2,0.2,0.3,0.6,0.3,1.7v0.7c-0.1,4.4-0.3,7.6-0.6,11.4c-0.1,2-0.2,3.4-0.2,4.2c-0.1,2.3-0.4,2.9-1.9,3.1
		c-1.3,0.2-1.4,0.2-1.4,0.7c0,0.3,0.2,0.5,0.6,0.5c0.3,0,0.8,0,1.6-0.1c0.9-0.1,1.6-0.1,2.2-0.1c0.6,0,1.3,0.1,2.1,0.1
		c0.4,0,0.6,0,0.9,0c0.8,0,1.1-0.1,1.1-0.6c0-0.5-0.3-0.6-1.4-0.6c-2,0-2.2-0.6-2.2-6.1c0-3.1,0.1-5.6,0.6-12.3l7.5,18.1
		c0.3,0.7,0.5,1,0.9,1c0.4,0,0.5-0.2,0.9-1.3l7.3-18.5l0.3,16.3v0.4c0,1.1-0.1,1.7-0.5,2c-0.1,0.1-0.2,0.2-0.4,0.3
		c-0.6,0.4-1.2,0.8-1.8,1.3c-2.4,2.1-3.9,5.1-3.9,8.4c0,3.5,2,7.3,5.1,9.6c2.4,1.7,5.3,2.6,8.6,2.6c2.3,0,4.4-0.4,6.3-1.2
		c1.1-0.5,1.5-0.9,1.6-1.7l0.3-3.2l0-0.1c0-0.4-0.2-0.6-0.5-0.6c-0.3,0-0.5,0.2-0.8,0.7c-2,3.7-3.8,5-6.7,5c-4.9,0-8.8-5-8.8-11.3
		c0-3.5,1.2-6.4,3.1-8.4c0.8-0.8,1.7-1.4,2.7-1.9c1-0.4,2.1-0.7,3.3-0.7c0.4,0,0.8,0,1.1,0.1c0.6,0.1,1.1,0.2,1.6,0.4
		c0.2,0.1,0.3,0.1,0.5,0.2c0.4,0.2,0.7,0.4,1,0.7c0.4,0.3,0.7,0.7,1.1,1.2c0.3,0.3,0.5,0.7,0.8,1.2c0.3,0.5,0.6,0.7,0.9,0.7
		c0.2,0,0.4-0.1,0.4-0.3L59.2,55c-0.7-0.2-1.6-0.4-2.7-0.5h0c-0.1-0.9-0.1-2.1-0.1-3.7c0-3.1,0.1-5.6,0.6-12.3l7.5,18.1
		c0.3,0.7,0.5,1,0.8,1c0.4,0,0.5-0.2,0.9-1.3l7.3-18.5l0.3,16.3v0.4c0,1.8-0.4,2.3-1.7,2.4L71.2,57c-0.3,0-0.5,0.3-0.5,0.6
		c0,0.4,0.2,0.5,0.7,0.5c0.1,0,0.6,0,1.3-0.1C73.8,58,74.9,58,76,58c1.1,0,2.1,0,3,0.1c0.3,0,0.6,0,0.9,0c0.7,0,1-0.1,1-0.5
		C80.9,57.1,80.6,57,79.7,57"/>
	<path class="st2" d="M141.1,55.8c1.1,2.3,2.2,4.5,3.3,6.6h0.1c1.3-2.3,2.5-4.8,3.7-7.2l4.5-9.2c2.2-4.4,3.6-7,3.7-9.2
		c1.6,0.1,2.6,0.1,3.6,0.1c1.2,0,2.8,0,4.3-0.1c0.3,0.2,0.3,1,0,1.2l-1,0.1c-3,0.3-3.4,1.2-3.4,4.6c0.1,5.1,0.1,14,0.5,20.9
		c0.1,2.4,0.1,3.7,2.4,3.9l1.5,0.1c0.3,0.3,0.2,1-0.1,1.2c-2-0.1-3.9-0.1-5.7-0.1c-1.7,0-3.8,0-5.8,0.1c-0.3-0.2-0.4-0.9-0.1-1.2
		l1.4-0.1c2.4-0.2,2.4-1,2.4-4.1l-0.1-20.1h-0.1c-0.3,0.5-2.2,4.4-3.1,6.3l-4.3,8.4c-2.2,4.2-4.3,8.8-5.2,11
		c-0.1,0.1-0.3,0.2-0.5,0.2c-0.1,0-0.3,0-0.4-0.2c-0.8-2.5-3.1-7.3-4.2-9.6l-4.3-9.3c-1-2.2-2-4.7-3.1-6.9h-0.1
		c-0.2,3-0.3,5.8-0.5,8.6c-0.1,2.9-0.3,7.2-0.3,11.3c0,3.6,0.3,4.3,2.2,4.5l1.8,0.1c0.3,0.3,0.3,1.1,0,1.2c-1.6-0.1-3.5-0.1-5.3-0.1
		c-1.5,0-3.3,0-4.9,0.1c-0.3-0.2-0.4-1-0.1-1.2l1.1-0.1c2-0.2,2.7-0.6,3-3.9c0.3-3.2,0.5-5.8,0.8-10.6c0.2-4,0.4-8.1,0.5-10.7
		c0.1-3-0.3-3.7-3.2-4.1l-0.8-0.1c-0.2-0.3-0.2-1,0.2-1.2c1.4,0.1,2.6,0.1,3.8,0.1c1.1,0,2.4,0,4-0.1c-0.2,1.9,1,4.9,2.5,7.9
		L141.1,55.8z"/>
	<path class="st2" d="M172.9,67.2c1,0,2.5-0.7,2.9-1.2c0.6-0.6,0.6-1.3,0.6-2.3l0.1-2.8c0-0.5-0.2-0.6-0.5-0.6c-0.3,0-1.1,0.2-2,0.5
		c-2.8,1-4.2,1.7-4.2,3.6C169.8,65.1,170.4,67.2,172.9,67.2 M175.9,58.7c0.7-0.2,0.8-0.7,0.8-1.4l0-2.2c0-1.8-0.5-4.2-3.5-4.2
		c-1.3,0-3,0.7-3.1,2.2c0,0.8-0.1,1.3-0.5,1.6c-0.7,0.6-2,0.9-2.7,0.9c-0.4,0-0.7-0.2-0.7-0.7c0-2.5,5.4-5.9,8.9-5.9
		c3.5,0,5.1,2,5,5.6l-0.3,8.4c-0.1,2.2,0.3,4.2,2.2,4.2c0.5,0,0.9-0.1,1.2-0.3c0.2-0.1,0.5-0.3,0.6-0.3c0.2,0,0.3,0.3,0.3,0.6
		c0,0.2-1.7,2.1-4,2.1c-1.2,0-2.3-0.4-3.1-1.5c-0.2-0.3-0.5-0.7-0.8-0.7c-0.3,0-0.9,0.4-1.9,1c-1.1,0.6-2.1,1.2-3.5,1.2
		c-1.4,0-2.6-0.4-3.4-1.1c-0.9-0.8-1.5-2-1.5-3.4c0-1.9,0.9-3,4-4.1L175.9,58.7z"/>
	<path class="st2" d="M187.4,54.8c0-1.9,0-2.1-1.3-3l-0.4-0.3c-0.2-0.2-0.2-0.7,0-0.9c1.1-0.4,3.7-1.6,4.9-2.4
		c0.2,0,0.4,0.1,0.4,0.3v2.8c0,0.2,0,0.4,0.1,0.4c1.7-1.4,3.5-2.9,5.3-2.9c1.2,0,2.2,0.8,2.2,1.9c0,1.6-1.3,2.2-2.1,2.2
		c-0.5,0-0.7-0.1-1.1-0.3c-0.7-0.5-1.4-0.8-2.1-0.8c-0.8,0-1.3,0.4-1.7,1c-0.5,0.7-0.6,2.1-0.6,3.7v6.5c0,3.5,0.1,4,1.9,4.2l1.7,0.1
		c0.3,0.2,0.2,1.1-0.1,1.2c-2.3-0.1-3.7-0.1-5.3-0.1c-1.7,0-3.2,0-4.4,0.1c-0.3-0.1-0.4-1-0.1-1.2l0.9-0.1c1.8-0.3,1.8-0.7,1.8-4.2
		V54.8z"/>
	<path class="st2" d="M201,78.6c0-1.3,0.9-1.9,1.9-1.9h0.9c0.8,0,1.3-0.3,1.6-0.9c1.4-2.2,2.4-4.2,2.8-5.3c0.1-0.4,0.5-1.4,0.5-2.1
		c0-1-0.2-1.5-0.8-3.3l-3.8-10.3c-0.8-2.3-1.2-3.4-2.8-3.8l-1.2-0.2c-0.3-0.2-0.2-1.1,0.1-1.2c1.5,0.1,3,0.1,4.6,0.1
		c1.3,0,2.6,0,4.2-0.1c0.4,0.1,0.4,1,0.1,1.2l-1.2,0.2c-0.7,0.1-1.1,0.3-1.1,0.6c0,0.6,1.1,3.7,1.4,4.5l1.5,4.4
		c0.3,0.8,1.2,3.3,1.4,3.4c0.1-0.1,0.9-1.6,1.8-3.6l1.6-3.8c1.1-2.5,1.7-4.3,1.7-4.8c0-0.3-0.3-0.7-1.2-0.8l-1.5-0.2
		c-0.3-0.2-0.3-1.1,0.1-1.2c1.5,0.1,3,0.1,4.2,0.1c1.2,0,2.3,0,3.7-0.1c0.4,0.2,0.4,0.9,0.1,1.2l-0.8,0.1c-1.6,0.3-2.5,1.7-4.1,5.1
		l-2.7,5.5c-1.6,3.2-5.5,11.6-7.9,16.8c-0.8,1.8-2,2.3-3.1,2.3C201.7,80.6,201,79.8,201,78.6"/>
	<path class="st2" d="M249.9,56.3c0-3.3-1.4-5-4.5-5c-1.8,0-3.3,0.8-4,1.7c-0.6,0.7-0.7,1.2-0.7,2.9v7.4c0,3.5,0.1,3.9,1.8,4.2
		l1,0.1c0.3,0.2,0.2,1.1-0.1,1.2c-1.4-0.1-2.8-0.1-4.5-0.1c-1.7,0-3,0-4.4,0.1c-0.3-0.1-0.4-1-0.1-1.2l0.9-0.1
		c1.8-0.3,1.8-0.7,1.8-4.2v-7c0-3.2-1.4-5-4.4-5c-2,0-3.3,0.9-4,1.7c-0.5,0.6-0.7,1.2-0.7,2.7v7.5c0,3.5,0.1,3.9,1.8,4.2l0.9,0.1
		c0.3,0.2,0.2,1.1-0.1,1.2c-1.3-0.1-2.7-0.1-4.4-0.1c-1.7,0-3.2,0-4.7,0.1c-0.3-0.1-0.4-1-0.1-1.2l1.2-0.1c1.8-0.2,1.8-0.7,1.8-4.2
		v-8.4c0-1.9,0-2.1-1.3-3l-0.4-0.3c-0.2-0.2-0.2-0.7,0-0.9c1.1-0.4,3.9-1.6,4.8-2.4c0.2,0,0.4,0.1,0.5,0.3c-0.1,1.1-0.1,1.8-0.1,2.3
		c0,0.3,0.2,0.5,0.5,0.5c1.8-1.3,4.1-2.5,6.4-2.5c2.4,0,3.8,0.9,5.1,2.8c0.4,0.1,0.8-0.1,1.2-0.4c1.9-1.3,4.3-2.5,6.5-2.5
		c3.9,0,5.7,2.6,5.7,6v8.3c0,3.5,0.1,3.9,1.8,4.2l1.2,0.1c0.3,0.2,0.2,1.1-0.1,1.2c-1.6-0.1-3-0.1-4.7-0.1c-1.7,0-3,0-4.4,0.1
		c-0.3-0.1-0.4-1-0.1-1.2l0.9-0.1c1.8-0.3,1.8-0.7,1.8-4.2V56.3z"/>
	<path class="st2" d="M267.7,50.5c-3.2,0-5.5,3-5.5,8.3c0,4.4,2,9.1,6.2,9.1c4.2,0,5.5-4.4,5.5-8.1C274,55.7,272.3,50.5,267.7,50.5
		 M278.1,59c0,6-4.1,10.3-10.2,10.3c-5.5,0-9.9-3.9-9.9-9.9c0-6.1,4.6-10.4,10.2-10.4C273.7,49,278.1,53.1,278.1,59"/>
	<path class="st2" d="M286.2,61.6c0,3.3,0.8,5.5,4.5,5.5c1.3,0,2.8-0.5,3.9-1.4c0.6-0.6,1-1.3,1-2.8V55c0-3.1-0.3-3.2-1.8-3.8
		l-0.6-0.2c-0.3-0.2-0.3-0.9,0-1.1c1.9,0,4.6-0.4,5.6-0.9c0.2,0,0.4,0.1,0.4,0.3c-0.1,0.9-0.1,2.4-0.1,4.2v8.1
		c0,3.8,0.1,5.2,1.5,5.2c0.6,0,1.2-0.1,1.9-0.2c0.3,0.2,0.3,1.2,0,1.4c-1.9,0.4-4.7,0.9-6.3,1.8c-0.2,0-0.5-0.1-0.6-0.3v-2
		c0-0.4-0.1-0.7-0.4-0.7c-1.4,0.9-3.8,2.5-6.6,2.5c-4.2,0-5.8-2.1-5.8-6v-8c0-3,0-3.5-1.4-4.1l-0.6-0.2c-0.3-0.2-0.2-0.9,0.1-1.1
		c2.2,0,4.1-0.5,5.1-0.9c0.3,0,0.4,0.1,0.5,0.3c-0.1,0.8-0.1,1.8-0.1,4.2V61.6z"/>
	<path class="st2" d="M305.5,54.8c0-1.9,0-2.1-1.3-3l-0.4-0.3c-0.2-0.2-0.2-0.7,0-0.9c1.1-0.4,3.9-1.6,4.8-2.4
		c0.2,0,0.4,0.1,0.5,0.3c-0.1,1.1-0.1,1.8-0.1,2.3c0,0.3,0.2,0.5,0.5,0.5c2-1.3,4.3-2.5,6.7-2.5c4,0,5.6,2.7,5.6,6v8.3
		c0,3.5,0.1,3.9,1.8,4.2l1.1,0.1c0.3,0.2,0.2,1.1-0.1,1.2c-1.4-0.1-2.8-0.1-4.5-0.1c-1.7,0-3.2,0-4.5,0.1c-0.3-0.1-0.4-1-0.1-1.2
		l0.9-0.1c1.8-0.3,1.8-0.7,1.8-4.2v-7.2c0-2.7-1.3-4.8-4.5-4.8c-1.8,0-3.4,0.8-4.1,1.7c-0.6,0.8-0.7,1.5-0.7,2.9v7.4
		c0,3.5,0.1,3.9,1.8,4.2l0.9,0.1c0.3,0.2,0.2,1.1-0.1,1.2c-1.3-0.1-2.7-0.1-4.4-0.1c-1.7,0-3.2,0-4.5,0.1c-0.3-0.1-0.4-1-0.1-1.2
		l1-0.1c1.8-0.2,1.8-0.7,1.8-4.2V54.8z"/>
	<path class="st2" d="M333.5,51.7c-0.8,0-0.9,0.1-0.9,1.2v9c0,2.8,0.3,5.3,3.5,5.3c0.5,0,0.9-0.1,1.3-0.2c0.4-0.1,1.1-0.7,1.2-0.7
		c0.4,0,0.6,0.5,0.5,0.8c-0.9,1-2.6,2.2-5.1,2.2c-4.1,0-5-2.3-5-5.2v-11c0-1.3,0-1.4-1-1.4h-1.3c-0.3-0.2-0.3-0.7-0.1-1
		c1.4-0.4,2.6-1.1,3.1-1.5c0.6-0.6,1.5-1.9,2-2.8c0.2-0.1,0.8-0.1,1,0.2v2.2c0,0.9,0,0.9,0.9,0.9h5.3c0.6,0.4,0.5,1.7,0,2H333.5z"/>
	<path class="st0" d="M357.1,55.8c1.1,2.3,2.2,4.5,3.3,6.6h0.1c1.3-2.3,2.5-4.8,3.7-7.2l4.5-9.2c2.2-4.4,3.6-7,3.7-9.2
		c1.6,0.1,2.6,0.1,3.6,0.1c1.2,0,2.8,0,4.3-0.1c0.3,0.2,0.3,1,0,1.2l-1,0.1c-3,0.3-3.4,1.2-3.4,4.6c0.1,5.1,0.1,14,0.5,20.9
		c0.1,2.4,0.1,3.7,2.4,3.9l1.5,0.1c0.3,0.3,0.2,1-0.1,1.2c-2-0.1-3.9-0.1-5.7-0.1c-1.7,0-3.8,0-5.8,0.1c-0.3-0.2-0.4-0.9-0.1-1.2
		l1.4-0.1c2.4-0.2,2.4-1,2.4-4.1l-0.1-20.1h-0.1c-0.3,0.5-2.2,4.4-3.1,6.3l-4.3,8.4c-2.2,4.2-4.3,8.8-5.2,11
		c-0.1,0.1-0.3,0.2-0.5,0.2c-0.1,0-0.3,0-0.4-0.2c-0.8-2.5-3.1-7.3-4.2-9.6l-4.3-9.3c-1-2.2-2-4.7-3.1-6.9H347
		c-0.2,3-0.3,5.8-0.5,8.6c-0.1,2.9-0.3,7.2-0.3,11.3c0,3.6,0.3,4.3,2.2,4.5l1.8,0.1c0.3,0.3,0.3,1.1,0,1.2c-1.6-0.1-3.5-0.1-5.3-0.1
		c-1.5,0-3.3,0-4.9,0.1c-0.3-0.2-0.4-1-0.1-1.2l1.1-0.1c2-0.2,2.7-0.6,3-3.9c0.3-3.2,0.5-5.8,0.8-10.6c0.2-4,0.4-8.1,0.5-10.7
		c0.1-3-0.3-3.7-3.2-4.1l-0.8-0.1c-0.2-0.3-0.2-1,0.2-1.2c1.4,0.1,2.6,0.1,3.8,0.1c1.1,0,2.4,0,4-0.1c-0.2,1.9,1,4.9,2.5,7.9
		L357.1,55.8z"/>
	<path class="st0" d="M389,67.2c1,0,2.5-0.7,2.9-1.2c0.6-0.6,0.6-1.3,0.6-2.3l0.1-2.8c0-0.5-0.2-0.6-0.5-0.6c-0.3,0-1.1,0.2-2,0.5
		c-2.8,1-4.2,1.7-4.2,3.6C385.9,65.1,386.5,67.2,389,67.2 M391.9,58.7c0.7-0.2,0.8-0.7,0.8-1.4l0-2.2c0-1.8-0.5-4.2-3.5-4.2
		c-1.3,0-3,0.7-3.1,2.2c0,0.8-0.1,1.3-0.5,1.6c-0.7,0.6-2,0.9-2.7,0.9c-0.4,0-0.7-0.2-0.7-0.7c0-2.5,5.4-5.9,8.9-5.9
		c3.5,0,5.1,2,5,5.6L396,63c-0.1,2.2,0.3,4.2,2.2,4.2c0.5,0,0.9-0.1,1.2-0.3c0.2-0.1,0.5-0.3,0.6-0.3c0.2,0,0.3,0.3,0.3,0.6
		c0,0.2-1.7,2.1-4,2.1c-1.2,0-2.3-0.4-3.1-1.5c-0.2-0.3-0.5-0.7-0.8-0.7c-0.3,0-0.9,0.4-1.9,1c-1.1,0.6-2.1,1.2-3.5,1.2
		c-1.4,0-2.5-0.4-3.4-1.1c-0.9-0.8-1.5-2-1.5-3.4c0-1.9,0.9-3,4-4.1L391.9,58.7z"/>
	<path class="st0" d="M403.5,54.8c0-1.9,0-2.1-1.3-3l-0.4-0.3c-0.2-0.2-0.2-0.7,0-0.9c1.1-0.4,3.9-1.6,4.8-2.4
		c0.2,0,0.4,0.1,0.5,0.3c-0.1,1.1-0.1,1.8-0.1,2.3c0,0.3,0.2,0.5,0.5,0.5c2-1.3,4.3-2.5,6.7-2.5c4,0,5.6,2.7,5.6,6v8.3
		c0,3.5,0.1,3.9,1.8,4.2l1.1,0.1c0.3,0.2,0.2,1.1-0.1,1.2c-1.4-0.1-2.8-0.1-4.5-0.1c-1.7,0-3.2,0-4.5,0.1c-0.3-0.1-0.4-1-0.1-1.2
		l0.9-0.1c1.8-0.3,1.8-0.7,1.8-4.2v-7.2c0-2.7-1.3-4.8-4.5-4.8c-1.8,0-3.4,0.8-4.1,1.7c-0.6,0.8-0.7,1.5-0.7,2.9v7.4
		c0,3.5,0.1,3.9,1.8,4.2l0.9,0.1c0.3,0.2,0.2,1.1-0.1,1.2c-1.3-0.1-2.7-0.1-4.4-0.1c-1.7,0-3.2,0-4.5,0.1c-0.3-0.1-0.4-1-0.1-1.2
		l1-0.1c1.8-0.2,1.8-0.7,1.8-4.2V54.8z"/>
	<path class="st0" d="M427.1,41.5c0-2.8,0-3.1-1.5-4l-0.5-0.3c-0.2-0.1-0.2-0.8,0-1c1.2-0.4,3.5-1.1,5.2-2c0.2,0,0.4,0.1,0.5,0.3
		c0,1.4-0.1,3.9-0.1,6v10.1c0,0.4,0,0.8,0.2,0.9c1.7-1.3,4-2.5,6.5-2.5c4.6,0,6.2,2.8,6.2,6.2v8c0,3.5,0.1,4,1.8,4.2l1.3,0.1
		c0.3,0.2,0.2,1.1-0.1,1.2c-1.7-0.1-3.1-0.1-4.8-0.1c-1.7,0-3.2,0-4.5,0.1c-0.3-0.1-0.4-1-0.1-1.2l1-0.1c1.8-0.3,1.8-0.7,1.8-4.2
		v-6.9c0-3.1-1.5-5.1-4.6-5.1c-1.6,0-2.9,0.6-3.8,1.3c-0.9,0.7-1,1-1,2.6v8.1c0,3.5,0.1,3.9,1.8,4.2l1,0.1c0.3,0.2,0.2,1.1-0.1,1.2
		c-1.4-0.1-2.8-0.1-4.5-0.1c-1.7,0-3.2,0-4.7,0.1c-0.3-0.1-0.4-1-0.1-1.2l1.2-0.1c1.8-0.2,1.8-0.7,1.8-4.2V41.5z"/>
	<path class="st0" d="M454.8,67.2c1,0,2.5-0.7,2.9-1.2c0.6-0.6,0.6-1.3,0.6-2.3l0.1-2.8c0-0.5-0.2-0.6-0.5-0.6c-0.3,0-1.1,0.2-2,0.5
		c-2.8,1-4.2,1.7-4.2,3.6C451.8,65.1,452.4,67.2,454.8,67.2 M457.8,58.7c0.7-0.2,0.8-0.7,0.8-1.4l0-2.2c0-1.8-0.5-4.2-3.5-4.2
		c-1.3,0-3,0.7-3.1,2.2c0,0.8-0.1,1.3-0.5,1.6c-0.7,0.6-2,0.9-2.7,0.9c-0.4,0-0.7-0.2-0.7-0.7c0-2.5,5.4-5.9,8.9-5.9
		c3.5,0,5.1,2,5,5.6l-0.3,8.4c-0.1,2.2,0.3,4.2,2.2,4.2c0.5,0,0.9-0.1,1.2-0.3c0.2-0.1,0.5-0.3,0.6-0.3c0.2,0,0.3,0.3,0.3,0.6
		c0,0.2-1.7,2.1-4,2.1c-1.2,0-2.3-0.4-3.1-1.5c-0.2-0.3-0.5-0.7-0.8-0.7c-0.3,0-0.9,0.4-1.9,1c-1.1,0.6-2.1,1.2-3.5,1.2
		c-1.4,0-2.5-0.4-3.4-1.1c-0.9-0.8-1.5-2-1.5-3.4c0-1.9,0.9-3,4-4.1L457.8,58.7z"/>
	<path class="st0" d="M473.3,51.7c-0.8,0-0.9,0.1-0.9,1.2v9c0,2.8,0.3,5.3,3.5,5.3c0.5,0,0.9-0.1,1.3-0.2c0.4-0.1,1.1-0.7,1.2-0.7
		c0.4,0,0.6,0.5,0.5,0.8c-0.9,1-2.6,2.2-5.1,2.2c-4.1,0-5-2.3-5-5.2v-11c0-1.3,0-1.4-1-1.4h-1.3c-0.3-0.2-0.3-0.7-0.1-1
		c1.4-0.4,2.6-1.1,3.1-1.5c0.6-0.6,1.5-1.9,2-2.8c0.2-0.1,0.8-0.1,1,0.2v2.2c0,0.9,0,0.9,0.9,0.9h5.3c0.6,0.4,0.5,1.7,0,2H473.3z"/>
	<path class="st0" d="M486.9,51.7c-0.8,0-0.9,0.1-0.9,1.2v9c0,2.8,0.3,5.3,3.5,5.3c0.5,0,0.9-0.1,1.3-0.2c0.4-0.1,1.1-0.7,1.2-0.7
		c0.4,0,0.6,0.5,0.5,0.8c-0.9,1-2.6,2.2-5.1,2.2c-4.1,0-5-2.3-5-5.2v-11c0-1.3,0-1.4-1-1.4h-1.3c-0.3-0.2-0.3-0.7-0.1-1
		c1.4-0.4,2.6-1.1,3.1-1.5c0.6-0.6,1.5-1.9,2-2.8c0.2-0.1,0.8-0.1,1,0.2v2.2c0,0.9,0,0.9,0.9,0.9h5.3c0.6,0.4,0.5,1.7,0,2H486.9z"/>
	<path class="st0" d="M500.9,67.2c1,0,2.5-0.7,2.9-1.2c0.6-0.6,0.6-1.3,0.6-2.3l0.1-2.8c0-0.5-0.2-0.6-0.5-0.6c-0.3,0-1.1,0.2-2,0.5
		c-2.8,1-4.2,1.7-4.2,3.6C497.9,65.1,498.5,67.2,500.9,67.2 M503.9,58.7c0.7-0.2,0.8-0.7,0.8-1.4l0-2.2c0-1.8-0.5-4.2-3.5-4.2
		c-1.3,0-3,0.7-3.1,2.2c0,0.8-0.1,1.3-0.5,1.6c-0.7,0.6-2,0.9-2.7,0.9c-0.4,0-0.7-0.2-0.7-0.7c0-2.5,5.4-5.9,8.9-5.9
		c3.5,0,5.1,2,5,5.6l-0.3,8.4c-0.1,2.2,0.3,4.2,2.2,4.2c0.5,0,0.9-0.1,1.2-0.3c0.2-0.1,0.5-0.3,0.6-0.3c0.2,0,0.3,0.3,0.3,0.6
		c0,0.2-1.7,2.1-4,2.1c-1.2,0-2.3-0.4-3.1-1.5c-0.2-0.3-0.5-0.7-0.8-0.7c-0.3,0-0.9,0.4-1.9,1c-1.1,0.6-2.1,1.2-3.5,1.2
		c-1.4,0-2.5-0.4-3.4-1.1c-0.9-0.8-1.5-2-1.5-3.4c0-1.9,0.9-3,4-4.1L503.9,58.7z"/>
	<path class="st0" d="M515.4,54.8c0-1.9,0-2.1-1.3-3l-0.4-0.3c-0.2-0.2-0.2-0.7,0-0.9c1.1-0.4,3.9-1.6,4.8-2.4
		c0.2,0,0.4,0.1,0.5,0.3c-0.1,1.1-0.1,1.8-0.1,2.3c0,0.3,0.2,0.5,0.5,0.5c2-1.3,4.3-2.5,6.7-2.5c4,0,5.6,2.7,5.6,6v8.3
		c0,3.5,0.1,3.9,1.8,4.2l1.1,0.1c0.3,0.2,0.2,1.1-0.1,1.2c-1.4-0.1-2.8-0.1-4.5-0.1c-1.7,0-3.2,0-4.5,0.1c-0.3-0.1-0.4-1-0.1-1.2
		l0.9-0.1c1.8-0.3,1.8-0.7,1.8-4.2v-7.2c0-2.7-1.3-4.8-4.5-4.8c-1.8,0-3.4,0.8-4.1,1.7c-0.6,0.8-0.7,1.5-0.7,2.9v7.4
		c0,3.5,0.1,3.9,1.8,4.2l0.9,0.1c0.3,0.2,0.2,1.1-0.1,1.2c-1.3-0.1-2.7-0.1-4.4-0.1c-1.7,0-3.2,0-4.5,0.1c-0.3-0.1-0.4-1-0.1-1.2
		l1-0.1c1.8-0.2,1.8-0.7,1.8-4.2V54.8z"/>
</g>
<g>
</g>
<g>
</g>
<g>
</g>
<g>
</g>
<g>
</g>
<g>
</g>
<g>
</g>
<g>
</g>
<g>
</g>
<g>
</g>
<g>
</g>
<g>
</g>
<g>
</g>
<g>
</g>
<g>
</g>
</svg>
